<svg width="19" height="21" viewBox="0 0 19 21" fill="none" xmlns="http://www.w3.org/2000/svg">
<path d="M13.4847 15.4241C16.0048 15.1241 18.1973 13.5803 18.4723 12.1703C18.9073 9.94774 18.8723 6.74641 18.8723 6.74641C18.8723 2.4088 16.0148 1.13627 16.0148 1.13627C14.5747 0.4775 12.1009 0.201243 9.53086 0.179993H9.46836C6.89705 0.201243 4.42448 0.4775 2.98445 1.13627C2.98445 1.13627 0.128126 2.40755 0.128126 6.74641L0.125626 7.57393C0.120626 8.37395 0.116876 9.26147 0.139377 10.1877C0.243129 14.4303 0.921896 18.613 4.86449 19.6505C6.68204 20.1292 8.24333 20.2292 9.50086 20.1605C11.7797 20.0355 13.0597 19.3517 13.0597 19.3517L12.9847 17.7054C12.9847 17.7054 11.3559 18.2179 9.52586 18.1554C7.71332 18.0929 5.80077 17.9604 5.50701 15.7454C5.47905 15.5399 5.46526 15.3327 5.46576 15.1254C5.46576 15.1254 7.2458 15.5579 9.50086 15.6604C10.8796 15.7229 12.1722 15.5804 13.486 15.4241H13.4847ZM15.501 12.3365H13.4097V7.23642C13.4097 6.16264 12.9547 5.61763 12.0459 5.61763C11.0409 5.61763 10.5371 6.26389 10.5371 7.54393V10.3352H8.45708V7.54268C8.45708 6.26264 7.95332 5.61638 6.9483 5.61638C6.03952 5.61638 5.58451 6.16139 5.58451 7.23642V12.3353H3.49321V7.08266C3.49321 6.00889 3.76822 5.15637 4.31823 4.5251C4.88825 3.89384 5.63326 3.57008 6.55954 3.57008C7.62956 3.57008 8.43958 3.98009 8.97585 4.79886L9.49711 5.66763L10.0184 4.79886C10.5546 3.98009 11.3647 3.57008 12.4359 3.57008C13.361 3.57008 14.106 3.89384 14.6747 4.5251C15.2273 5.15637 15.501 6.00889 15.501 7.08266V12.3365Z" fill="#0A1F69"/>
</svg>
