<svg width="189" height="150" viewBox="0 0 189 150" fill="none" xmlns="http://www.w3.org/2000/svg">
<g clip-path="url(#clip0_5_57)">
<path d="M94.495 149.13C146.614 149.13 188.865 146.663 188.865 143.62C188.865 140.577 146.614 138.11 94.495 138.11C42.3759 138.11 0.125 140.577 0.125 143.62C0.125 146.663 42.3759 149.13 94.495 149.13Z" fill="#F0F6FF"/>
<path d="M131.285 2.52991H26.1951V105.43H131.285V2.52991Z" fill="#0F264C"/>
<path d="M128.585 5.81995H28.895V105.43H128.585V5.81995Z" fill="white"/>
<path d="M131.285 103.98V105.43H78.325L89.775 93.99L105.535 78.22L131.285 103.98Z" fill="#0F264C"/>
<path d="M26.1951 105.43V95.5399L58.7551 62.9799L101.215 105.43H26.1951Z" fill="#0F264C"/>
<path d="M96.0751 51.6498C104.961 51.6498 112.165 44.4461 112.165 35.5599C112.165 26.6736 104.961 19.4698 96.0751 19.4698C87.1888 19.4698 79.9851 26.6736 79.9851 35.5599C79.9851 44.4461 87.1888 51.6498 96.0751 51.6498Z" fill="#0F264C"/>
<path d="M150.287 7.86705L150.24 8.35474L153.723 8.69506L153.771 8.20738L150.287 7.86705Z" fill="#0053CC"/>
<path d="M138.447 6.70838L138.4 7.19604L146.909 8.02741L146.957 7.53974L138.447 6.70838Z" fill="#0053CC"/>
<path d="M57.3632 0.505566L47.3577 102.918L151.95 113.136L161.955 10.724L57.3632 0.505566Z" fill="#0053CC"/>
<path d="M59.7376 4.04914L50.052 103.187L149.27 112.881L158.955 13.7425L59.7376 4.04914Z" fill="white"/>
<path d="M152.085 111.69L151.945 113.13L99.2351 107.98L111.735 97.7099L128.955 83.5499L152.085 111.69Z" fill="#0053CC"/>
<path d="M47.3552 102.92L48.3152 93.07L83.8852 63.83L122.015 110.21L47.3552 102.92Z" fill="#0053CC"/>
<path d="M138.425 46.6174C141.992 38.4787 138.287 28.989 130.148 25.4214C122.009 21.8539 112.519 25.5595 108.952 33.6982C105.384 41.8369 109.09 51.3266 117.229 54.8942C125.367 58.4617 134.857 54.7561 138.425 46.6174Z" fill="#0053CC"/>
<path d="M115.296 14.0952L10.4299 20.9501L17.142 123.631L122.008 116.776L115.296 14.0952Z" fill="#9FC6FF"/>
<path d="M112.826 17.5571L13.3486 24.0598L19.8461 123.458L119.324 116.955L112.826 17.5571Z" fill="white"/>
<path d="M121.915 115.34L122.015 116.79L69.165 120.24L79.835 108.08L94.535 91.3201L121.915 115.34Z" fill="#9FC6FF"/>
<path d="M17.1451 123.64L16.4951 113.77L46.8651 79.15L91.9951 118.75L17.1451 123.64Z" fill="#9FC6FF"/>
<path d="M93.6987 60.7395C99.9822 54.456 99.9822 44.2684 93.6987 37.9848C87.4152 31.7013 77.2275 31.7013 70.944 37.9848C64.6605 44.2684 64.6605 54.456 70.944 60.7395C77.2275 67.0231 87.4152 67.0231 93.6987 60.7395Z" fill="#9FC6FF"/>
<path d="M157.355 65.87L153.935 67L157.025 70.31C157.025 70.31 159.725 68.7 159.025 67.18L157.355 65.87Z" fill="#FFC3BD"/>
<path d="M151.595 70.05L154.265 72.63L157.025 70.32L153.935 67L151.595 70.05Z" fill="#FFC3BD"/>
<path d="M162.945 38.8201C163.295 39.4601 163.575 40.0301 163.865 40.6401C164.145 41.2401 164.425 41.8401 164.695 42.4501C165.215 43.6701 165.705 44.9101 166.135 46.1701C166.575 47.4301 166.945 48.7301 167.265 50.0501L167.495 51.0501L167.685 52.0701C167.755 52.4101 167.795 52.7601 167.835 53.1101L167.905 53.6301L167.925 53.7601L167.945 53.9801C167.965 54.1501 167.965 54.2901 167.965 54.4401C167.925 55.6101 167.625 56.3901 167.335 57.1301C167.025 57.8601 166.685 58.4901 166.325 59.1001C165.605 60.3101 164.805 61.3901 163.975 62.4401C162.315 64.5201 160.525 66.3901 158.575 68.1701L156.595 66.3901C158.015 64.3401 159.415 62.2301 160.685 60.1401C161.315 59.0901 161.905 58.0301 162.385 57.0001C162.625 56.4901 162.835 55.9701 162.975 55.5101C163.115 55.0601 163.185 54.6001 163.145 54.4801C163.145 54.4801 163.145 54.4601 163.135 54.4701C163.135 54.4701 163.135 54.5001 163.135 54.4501L163.115 54.3401L163.025 53.9201C162.965 53.6401 162.915 53.3601 162.825 53.0801L162.605 52.2301L162.355 51.3801C162.005 50.2501 161.605 49.1101 161.165 47.9801C160.725 46.8501 160.255 45.7301 159.755 44.6101C159.275 43.5001 158.725 42.3601 158.225 41.3301L162.975 38.8101L162.945 38.8201Z" fill="#FFC3BD"/>
<path d="M168.535 47.33L161.915 50.83L160.315 51.68C160.315 51.68 159.945 50.58 159.405 48.99C158.975 47.72 158.445 46.14 157.915 44.54C157.745 44.03 157.585 43.53 157.425 43.04C157.375 42.9 157.325 42.76 157.285 42.62C155.855 38.23 159.825 36.27 162.525 36.83C167.155 37.8 168.535 47.33 168.535 47.33Z" fill="#9FC6FF"/>
<path d="M161.905 50.8301L160.305 51.6801C160.305 51.6801 159.935 50.5801 159.395 48.9901C158.965 47.7201 158.435 46.1401 157.905 44.5401C157.735 44.0301 157.575 43.5301 157.415 43.0401L161.065 42.3201C161.065 42.3201 161.565 48.1101 161.895 50.8301H161.905Z" fill="#77B3FC"/>
<path d="M157.255 26.79C156.495 29.32 155.515 34 157.155 35.9C157.155 35.9 156.185 38.45 151.395 37.97C146.115 37.45 149.135 35.1 149.135 35.1C152.085 34.7 152.225 32.56 151.915 30.5L157.255 26.78V26.79Z" fill="#FFC3BD"/>
<path d="M148.105 36C148.345 35.53 148.005 33.78 148.005 33.78C148.005 33.78 155.535 32.77 158.225 33.73C159.675 34.25 158.405 36.85 158.405 36.85L148.115 36H148.105Z" fill="#14365B"/>
<path d="M148.265 22.96C148.235 23.24 148.065 23.46 147.875 23.44C147.685 23.42 147.565 23.18 147.585 22.89C147.615 22.61 147.785 22.39 147.975 22.41C148.165 22.43 148.285 22.67 148.265 22.96Z" fill="#0F264C"/>
<path d="M148.255 23.1C148.255 23.1 147.445 24.68 146.655 25.4C147.115 25.92 147.985 25.79 147.985 25.79L148.255 23.1Z" fill="#ED847E"/>
<path d="M149.345 22.0199C149.285 22.0199 149.235 21.9899 149.205 21.9399C148.815 21.2999 148.195 21.2799 148.195 21.2799C148.105 21.2799 148.025 21.1999 148.035 21.1099C148.035 21.0199 148.105 20.9399 148.205 20.9499C148.235 20.9499 149.015 20.9799 149.495 21.7799C149.545 21.8599 149.515 21.9599 149.435 22.0099C149.405 22.0299 149.375 22.0299 149.345 22.0299V22.0199Z" fill="#0F264C"/>
<path d="M132.935 136.07L129.395 135.81L129.065 127.55L132.595 127.81L132.935 136.07Z" fill="#FFC3BD"/>
<path d="M155.535 139.23H151.985L149.225 131.01H152.775L155.535 139.23Z" fill="#FFC3BD"/>
<path d="M151.515 138.81H155.835C155.985 138.81 156.105 138.91 156.135 139.05L156.835 142.2C156.905 142.53 156.655 142.84 156.315 142.83C154.925 142.81 153.905 142.72 152.155 142.72C151.075 142.72 148.855 142.83 147.365 142.83C145.875 142.83 145.685 141.36 146.295 141.22C149.025 140.62 150.055 139.8 150.935 139.01C151.095 138.87 151.295 138.79 151.515 138.79V138.81Z" fill="#14365B"/>
<path d="M129.225 135.02L133.085 135.31C133.225 135.32 133.345 135.43 133.365 135.57L133.825 138.77C133.875 139.1 133.605 139.39 133.265 139.36C131.875 139.23 129.865 139 128.115 138.87C126.065 138.72 124.705 138.65 122.305 138.47C120.855 138.36 120.555 136.86 121.175 136.78C123.985 136.38 125.835 136.54 128.335 135.24C128.605 135.1 128.905 135.01 129.205 135.03L129.225 135.02Z" fill="#14365B"/>
<path d="M129.065 127.55L129.235 131.81L132.775 132.07L132.605 127.82L129.065 127.55Z" fill="#F29994"/>
<path d="M152.775 131.01H149.225L150.655 135.25H154.205L152.775 131.01Z" fill="#F29994"/>
<path d="M160.115 67.75C157.345 67.55 146.895 66.77 141.195 66.34C140.515 60.82 140.395 56.03 140.575 51.99C140.655 50.27 140.785 48.68 140.955 47.23C141.835 39.64 143.685 35.79 143.685 35.79C143.685 35.79 146.375 35.26 149.195 35.21C151.335 35.18 154.835 35.51 157.235 35.81C160.315 36.19 162.965 36.94 162.965 36.94C159.145 50.41 160.465 64.85 160.115 67.75Z" fill="#9FC6FF"/>
<path d="M142.865 48.69L140.585 52C140.665 50.28 140.795 48.69 140.965 47.24L142.865 48.7V48.69Z" fill="#77B3FC"/>
<path d="M141.415 38.24C141.095 38.79 140.715 39.42 140.355 40.02C139.985 40.62 139.615 41.22 139.225 41.8C138.455 42.98 137.665 44.14 136.845 45.26C136.015 46.38 135.165 47.46 134.265 48.47C133.455 49.37 132.615 50.2 131.745 50.91C130.995 51.08 130.235 51.19 129.465 51.24C128.505 51.28 127.525 51.24 126.545 51.07C125.565 50.91 124.595 50.63 123.645 50.26C123.165 50.07 122.695 49.87 122.235 49.64C122.005 49.52 121.785 49.4 121.555 49.27C121.345 49.15 121.095 49 120.945 48.91L119.085 50.82C119.355 51.12 119.545 51.33 119.785 51.56C120.015 51.78 120.255 51.99 120.505 52.19C120.995 52.6 121.505 52.98 122.045 53.32C123.115 54.01 124.295 54.57 125.525 54.99C126.765 55.4 128.065 55.66 129.395 55.75C130.715 55.83 132.055 55.76 133.355 55.52L133.765 55.45L134.225 55.15C135.645 54.21 136.875 53.15 137.995 52.02C139.115 50.9 140.135 49.72 141.085 48.51C142.045 47.3 142.925 46.05 143.765 44.78C144.185 44.14 144.585 43.5 144.985 42.85C145.385 42.19 145.755 41.56 146.145 40.83L141.425 38.26L141.415 38.24Z" fill="#FFC3BD"/>
<path d="M147.835 39.87C147.585 43.25 143.575 49.83 143.575 49.83L134.515 45.07C134.515 45.07 137.585 40.14 140.935 37.2C144.325 34.23 148.105 36.15 147.825 39.86L147.835 39.87Z" fill="#9FC6FF"/>
<path d="M122.535 50.07L119.885 47.76L117.845 51.24C117.845 51.24 119.725 53.35 121.945 52.02L122.535 50.08V50.07Z" fill="#FFC3BD"/>
<path d="M116.205 46.21L114.795 49.41L117.845 51.23L119.885 47.75L116.205 46.21Z" fill="#FFC3BD"/>
<path d="M157.955 22.94C157.395 26.41 157.245 28.48 155.295 30.1C152.375 32.54 148.215 30.51 147.725 26.93C147.285 23.71 148.275 18.57 151.835 17.52C155.345 16.48 158.505 19.47 157.945 22.94H157.955Z" fill="#FFC3BD"/>
<path d="M161.885 21.11C164.485 22.93 158.295 29.61 156.095 29.54C153.895 29.47 149.785 23.36 151.125 20.12C149.985 19.66 149.625 19.51 149.165 18.35C148.335 16.25 149.335 12.75 154.475 13.73C153.195 14.6 154.085 15.28 156.505 14.95C155.555 16.09 157.125 16.92 159.475 16.44C159.065 18.52 164.315 18.82 161.885 21.11Z" fill="#0F264C"/>
<path d="M153.065 24.0099C152.895 24.9399 152.315 25.7199 151.675 26.1499C150.705 26.8099 149.845 26.0299 149.805 24.9099C149.775 23.9099 150.235 22.3599 151.355 22.1499C152.465 21.9399 153.255 22.9299 153.065 23.9999V24.0099Z" fill="#FFC3BD"/>
<path d="M155.485 134.43H148.985C148.985 134.43 142.655 112.67 141.065 101.39C140.725 98.96 140.925 95.75 141.435 92.26C142.305 86.3 144.065 79.53 145.535 74.47C146.845 69.98 147.915 66.84 147.915 66.84C147.915 66.84 152.885 67.21 160.125 67.75C159.465 76.61 150.695 91.17 151.305 103.19C151.865 114.27 155.485 134.42 155.485 134.42V134.43Z" fill="#14365B"/>
<path d="M148.765 77.04C148.695 82.94 144.555 89.46 141.435 92.26C142.305 86.3 144.065 79.53 145.535 74.47C146.445 74.29 148.005 76.02 148.765 77.03V77.04Z" fill="#0A1B35"/>
<path d="M141.205 66.35C141.205 66.35 125.885 89.53 125.465 100.34C125.035 111.59 127.965 130.89 127.965 130.89L133.955 131.34C133.955 131.34 134.655 112.98 135.735 101.98C136.915 89.99 154.225 76.63 154.915 67.36C149.065 66.93 141.195 66.34 141.195 66.34L141.205 66.35Z" fill="#14365B"/>
<path d="M147.835 134.57H156.325V132.28L146.835 132.13L147.835 134.57Z" fill="#0053CC"/>
<path d="M126.765 130.93L135.085 131.57L135.255 129.26L125.945 128.43L126.765 130.93Z" fill="#0053CC"/>
<path d="M150.345 139.43C150.075 139.43 149.825 139.38 149.665 139.25C149.535 139.14 149.475 138.99 149.495 138.81C149.495 138.67 149.575 138.6 149.635 138.57C150.035 138.37 151.175 139.07 151.305 139.15C151.335 139.17 151.345 139.2 151.345 139.23C151.345 139.26 151.315 139.29 151.285 139.3C151.035 139.36 150.685 139.43 150.355 139.43H150.345ZM149.815 138.7C149.815 138.7 149.735 138.7 149.705 138.72C149.685 138.73 149.655 138.75 149.655 138.82C149.655 138.95 149.685 139.05 149.765 139.12C149.955 139.28 150.425 139.31 151.025 139.18C150.625 138.95 150.085 138.69 149.815 138.69V138.7Z" fill="#407BFF"/>
<path d="M151.255 139.31C151.255 139.31 151.225 139.31 151.215 139.3C150.845 139.1 150.135 138.32 150.215 137.93C150.225 137.86 150.285 137.73 150.485 137.71C150.615 137.69 150.735 137.73 150.845 137.82C151.255 138.16 151.345 139.18 151.345 139.22C151.345 139.25 151.335 139.28 151.305 139.3C151.295 139.3 151.275 139.31 151.255 139.31ZM150.535 137.87C150.535 137.87 150.505 137.87 150.495 137.87C150.385 137.88 150.375 137.93 150.375 137.96C150.335 138.19 150.785 138.78 151.145 139.06C151.105 138.76 150.995 138.16 150.725 137.95C150.665 137.9 150.605 137.88 150.535 137.88V137.87Z" fill="#407BFF"/>
<path d="M128.015 135.54C127.555 135.54 127.085 135.48 126.865 135.25C126.755 135.14 126.715 135 126.735 134.83C126.755 134.73 126.805 134.66 126.885 134.62C127.335 134.42 128.705 135.24 128.855 135.33C128.885 135.35 128.905 135.38 128.895 135.42C128.895 135.45 128.855 135.48 128.825 135.49C128.595 135.52 128.305 135.54 128.005 135.54H128.015ZM127.085 134.75C127.085 134.75 126.995 134.75 126.965 134.77C126.925 134.79 126.915 134.81 126.905 134.86C126.885 134.97 126.905 135.06 126.985 135.14C127.185 135.35 127.765 135.43 128.555 135.35C128.065 135.07 127.395 134.75 127.075 134.75H127.085Z" fill="#407BFF"/>
<path d="M128.815 135.48C128.815 135.48 128.785 135.48 128.775 135.47C128.365 135.25 127.575 134.42 127.665 134.02C127.685 133.93 127.765 133.82 127.995 133.81C128.165 133.81 128.315 133.87 128.445 133.99C128.865 134.39 128.895 135.35 128.895 135.39C128.895 135.42 128.885 135.45 128.855 135.46C128.845 135.46 128.825 135.47 128.815 135.47V135.48ZM128.015 133.98C128.015 133.98 128.015 133.98 128.005 133.98C127.855 133.98 127.835 134.04 127.835 134.06C127.775 134.3 128.305 134.94 128.725 135.23C128.705 134.95 128.615 134.37 128.335 134.1C128.245 134.01 128.135 133.97 128.015 133.97V133.98Z" fill="#407BFF"/>
</g>
<defs>
<clipPath id="clip0_5_57">
<rect width="188.75" height="148.63" fill="white" transform="translate(0.125 0.5)"/>
</clipPath>
</defs>
</svg>
