<svg width="81" height="158" viewBox="0 0 81 158" fill="none" xmlns="http://www.w3.org/2000/svg">
<g clip-path="url(#clip0_1_1028)">
<path d="M40.5 157.5C62.5914 157.5 80.5 156.415 80.5 155.077C80.5 153.739 62.5914 152.654 40.5 152.654C18.4086 152.654 0.5 153.739 0.5 155.077C0.5 156.415 18.4086 157.5 40.5 157.5Z" fill="#F5F5F5"/>
<path d="M29.6244 152.173L25.9674 150.929L27.7777 141.822L31.4348 143.067L29.6244 152.173Z" fill="#FFB573"/>
<path d="M61.4325 152.221H57.5844L56.6246 142.982H60.4727L61.4325 152.221Z" fill="#FFB573"/>
<path d="M57.2659 151.759H61.9601C62.1192 151.759 62.2557 151.872 62.2875 152.032L63.0472 155.577C63.1245 155.944 62.847 156.293 62.4831 156.284C60.973 156.256 59.8723 156.166 57.971 156.166C56.802 156.166 53.2723 156.293 51.6576 156.293C50.0428 156.293 49.8291 154.639 50.4931 154.488C53.4588 153.814 55.6921 152.89 56.6428 152.004C56.8156 151.844 57.0385 151.759 57.2659 151.759Z" fill="#263238"/>
<path d="M26.031 150.33L30.0837 151.49C30.2338 151.532 30.3385 151.679 30.3294 151.844L30.152 155.473C30.1338 155.85 29.7835 156.109 29.4378 156.006C27.9823 155.563 25.8945 154.87 24.0569 154.347C21.91 153.734 21.5097 153.522 18.9898 152.8C17.466 152.367 17.466 150.651 18.1438 150.684C21.2232 150.854 22.1238 151.264 25.0576 150.378C25.376 150.283 25.7126 150.241 26.031 150.335V150.33Z" fill="#263238"/>
<path d="M44.994 31.0308C44.7484 31.3655 44.5573 31.6059 44.339 31.884C44.1298 32.1527 43.9114 32.4119 43.6931 32.6664C43.2564 33.1802 42.8107 33.6799 42.3513 34.1701C41.4416 35.16 40.4682 36.0886 39.4402 36.9795C37.3751 38.7377 35.0872 40.364 32.2762 41.3916C31.5757 41.6461 30.8343 41.8488 30.0611 41.9808C29.8655 42.0138 29.6744 42.0468 29.4789 42.0703L28.8784 42.1269C28.7147 42.1505 28.4008 42.1505 28.1234 42.1457C27.8687 42.1269 27.6049 42.1033 27.382 42.0609C26.4632 41.9006 25.7399 41.6084 25.0622 41.3067C24.389 41.005 23.7795 40.6656 23.1973 40.3027C22.0329 39.5862 20.9731 38.799 19.9633 37.96C18.949 37.1209 18.0119 36.2489 17.0931 35.2731L18.8398 32.8833C20.9776 33.9863 23.1609 35.1412 25.2532 35.9802C25.7763 36.1829 26.2903 36.3667 26.7725 36.5081C27.2501 36.6495 27.7186 36.725 28.0233 36.7297C28.1006 36.7297 28.1507 36.7203 28.2007 36.7203C28.2326 36.7061 28.228 36.7108 28.369 36.6825L28.6874 36.626L29.0149 36.5458C29.2287 36.5034 29.4561 36.4091 29.6744 36.3432C29.8973 36.2489 30.1202 36.1782 30.3476 36.0698C31.2528 35.6832 32.1625 35.1412 33.0449 34.5001C33.9364 33.8779 34.8052 33.152 35.6512 32.3789C36.5018 31.6106 37.316 30.781 38.1166 29.9325C38.5168 29.5035 38.908 29.0699 39.2855 28.6268L39.8496 27.9622L40.3681 27.3305L44.9894 31.0261L44.994 31.0308Z" fill="#FFB573"/>
<path d="M47.1044 29.0557C47.391 32.8597 39.1263 40.6185 39.1263 40.6185L31.8213 34.0523C31.8213 34.0523 34.8961 30.6773 38.353 27.2834C40.7274 24.9454 46.7951 24.9454 47.1044 29.0557Z" fill="white"/>
<path opacity="0.4" d="M47.1044 29.0557C47.391 32.8597 39.1263 40.6185 39.1263 40.6185L31.8213 34.0523C31.8213 34.0523 34.8961 30.6773 38.353 27.2834C40.7274 24.9454 46.7951 24.9454 47.1044 29.0557Z" fill="#407BFF"/>
<path opacity="0.2" d="M43.3837 31.0119C39.9859 31.3325 37.8163 34.1607 36.8702 37.2859C36.7656 37.6347 36.6746 37.993 36.6018 38.3465L39.1308 40.6185C39.1308 40.6185 42.8879 37.0879 45.2486 33.6233C45.3669 31.983 44.9166 30.8705 43.3837 31.0119Z" fill="black"/>
<path d="M19.7313 34.5755L18.4804 31.2853L14.2139 32.6429C14.2139 32.6429 15.6649 34.2691 17.2705 35.4004L19.7313 34.5755Z" fill="#FFB573"/>
<path d="M16.329 28.7116L12.813 30.1776L14.2139 32.6429L18.485 31.2853L16.329 28.7116Z" fill="#FFB573"/>
<path opacity="0.2" d="M27.7777 141.827L26.6906 147.29L30.4022 148.271L31.4347 143.071L27.7777 141.827Z" fill="black"/>
<path opacity="0.2" d="M60.4773 142.986H56.6246L57.1204 147.747H60.9731L60.4773 142.986Z" fill="black"/>
<path d="M62.747 27.2174C61.5598 31.6247 60.8002 36.1122 60.2999 40.3404C59.936 43.4326 59.7176 46.3787 59.5812 49.0561C59.2628 55.3253 59.3947 60.105 59.2128 61.7266C56.2016 61.5097 44.8621 60.6943 38.676 60.2464C35.8787 37.5593 41.2187 25.8646 41.2187 25.8646C41.2187 25.8646 43.493 25.3932 46.1357 25.2329C46.4814 25.2093 46.8361 25.1952 47.1955 25.1905C49.5198 25.1386 53.3133 25.5016 55.9287 25.8221C56.4791 25.8881 57.034 25.973 57.5753 26.0625C60.3272 26.5245 62.747 27.2221 62.747 27.2221V27.2174Z" fill="white"/>
<path opacity="0.4" d="M62.747 27.2174C61.5598 31.6247 60.8002 36.1122 60.2999 40.3404C59.936 43.4326 59.7176 46.3787 59.5812 49.0561C59.2628 55.3253 59.3947 60.105 59.2128 61.7266C56.2016 61.5097 44.8621 60.6943 38.676 60.2464C35.8787 37.5593 41.2187 25.8646 41.2187 25.8646C41.2187 25.8646 43.493 25.3932 46.1357 25.2329C46.4814 25.2093 46.8361 25.1952 47.1955 25.1905C49.5198 25.1386 53.3133 25.5016 55.9287 25.8221C56.4791 25.8881 57.034 25.973 57.5753 26.0625C60.3272 26.5245 62.747 27.2221 62.747 27.2221V27.2174Z" fill="#407BFF"/>
<path opacity="0.2" d="M57.5617 32.9587C57.548 36.527 58.4987 39.5391 60.1043 42.1787C60.1634 41.5707 60.2317 40.9579 60.3044 40.3404C60.5774 38.0165 60.9321 35.6125 61.4007 33.185L57.5662 32.9587H57.5617Z" fill="black"/>
<path d="M55.7513 15.5698C55.0054 18.4404 54.0956 23.7339 55.9287 25.8174C54.3822 27.2504 52.1625 28.4052 49.0104 28.1036C46.5951 27.8726 46.5951 26.1144 47.1955 25.1858C50.3795 24.639 50.4613 22.2208 50.0702 19.9205L55.7468 15.5651L55.7513 15.5698Z" fill="#FFB573"/>
<path opacity="0.2" d="M53.4361 17.3421L50.0747 19.9158C50.1702 20.4626 50.2339 21.0094 50.2339 21.5421C51.4438 21.4478 53.1768 20.2081 53.3906 18.9165C53.4998 18.2754 53.5134 17.6485 53.4315 17.3421H53.4361Z" fill="black"/>
<path d="M49.6471 11.2756C48.7374 12.6096 46.354 10.1537 46.4404 7.94768C49.9019 7.4716 48.2507 4.85548 51.3983 5.52483C54.0092 6.08105 50.6433 9.81432 49.6471 11.2756Z" fill="#263238"/>
<path d="M58.2666 12.1382C57.1068 15.9092 56.6155 18.1812 54.273 19.6613C50.7433 21.8862 46.6087 18.9401 46.6542 14.8863C46.6951 11.2379 48.5828 5.68038 52.5719 5.10059C56.5018 4.53023 59.4265 8.3672 58.2666 12.1429V12.1382Z" fill="#FFB573"/>
<path d="M56.0788 15.5698C56.0788 15.5698 55.7604 13.8823 55.9287 12.7368C56.0924 11.6527 56.5973 10.5968 56.5973 10.5968C56.5973 10.5968 54.4185 9.26281 54.3685 7.65543C54.3685 7.65543 50.4704 8.848 48.3963 7.03322C46.3176 5.21844 48.1734 3.11612 47.109 2.31478C49.6562 2.05553 50.4295 3.66291 52.0396 3.31409C53.5907 2.97942 52.2261 1.79156 52.4399 0.5C57.2932 4.83191 59.4038 2.8003 61.7599 5.27972C63.2655 6.86353 61.6826 9.83789 61.6826 9.83789C61.6826 9.83789 64.0842 14.0708 56.0788 15.5698Z" fill="#263238"/>
<path d="M60.9139 9.7389C60.9139 9.7389 63.2974 10.248 63.3611 7.66014C64.5892 10.2951 63.0518 10.6864 60.9139 9.7389Z" fill="#263238"/>
<path d="M50.1565 15.7348C51.6848 16.1213 52.64 15.2162 52.681 15.1738C52.7219 15.1361 52.7219 15.0701 52.681 15.0324C52.6446 14.99 52.5809 14.99 52.5445 15.0277C52.5354 15.0371 51.6211 15.8997 50.202 15.5368C50.1474 15.5226 50.0974 15.5556 50.0837 15.6122C50.0701 15.664 50.1019 15.7206 50.152 15.7348H50.1565Z" fill="#263238"/>
<path d="M58.908 16.3051C58.1711 17.0499 57.1705 17.3704 56.3244 17.3421C55.0508 17.3044 54.7916 16.027 55.4647 14.99C56.0697 14.0567 57.457 12.9489 58.5805 13.491C59.6904 14.0284 59.754 15.4519 58.908 16.3051Z" fill="#FFB573"/>
<path d="M25.6671 145.329L31.9487 147.12C31.9487 147.12 39.8177 121.416 41.7508 107.299C42.2648 103.556 43.0562 98.2909 44.2616 92.6816C45.7854 85.611 47.7003 77.97 49.265 71.9836C50.9161 65.6814 52.1761 61.2175 52.1761 61.2175L38.676 60.2417C38.676 60.2417 33.1495 91.5833 31.8577 103.683C30.5159 116.264 25.6671 145.329 25.6671 145.329Z" fill="#407BFF"/>
<path opacity="0.3" d="M25.6671 145.329L31.9487 147.12C31.9487 147.12 39.8177 121.416 41.7508 107.299C42.2648 103.556 43.0562 98.2909 44.2616 92.6816C45.7854 85.611 47.7003 77.97 49.265 71.9836C50.9161 65.6814 52.1761 61.2175 52.1761 61.2175L38.676 60.2417C38.676 60.2417 33.1495 91.5833 31.8577 103.683C30.5159 116.264 25.6671 145.329 25.6671 145.329Z" fill="black"/>
<path opacity="0.2" d="M44.2662 92.6769C45.79 85.6063 47.7049 77.9653 49.2696 71.9789L47.8687 68.8537C44.5209 72.9782 43.6203 85.743 44.2662 92.6769Z" fill="black"/>
<path d="M45.9628 60.765C45.9628 60.765 47.4183 94.9159 49.0467 106.479C50.8252 119.144 55.3464 146.823 55.3464 146.823H62.3967C62.3967 146.823 60.0633 117.697 59.0353 105.263C57.8618 91.1025 59.2218 61.7218 59.2218 61.7218L45.9719 60.765H45.9628Z" fill="#407BFF"/>
<path opacity="0.3" d="M45.9628 60.765C45.9628 60.765 47.4183 94.9159 49.0467 106.479C50.8252 119.144 55.3464 146.823 55.3464 146.823H62.3967C62.3967 146.823 60.0633 117.697 59.0353 105.263C57.8618 91.1025 59.2218 61.7218 59.2218 61.7218L45.9719 60.765H45.9628Z" fill="black"/>
<path d="M54.5004 146.984H62.8015V144.415L53.5179 144.245L54.5004 146.984Z" fill="#407BFF"/>
<path d="M25.235 145.367L32.3262 147.394L33.3496 144.858L25.2623 142.539L25.235 145.367Z" fill="#407BFF"/>
<path d="M52.399 11.7469C52.3217 12.058 52.1034 12.2702 51.9032 12.2183C51.7076 12.1665 51.6076 11.8742 51.6849 11.5584C51.7622 11.2426 51.9805 11.0352 52.1807 11.087C52.3808 11.1389 52.4763 11.4311 52.399 11.7469Z" fill="#263238"/>
<path d="M48.9921 10.8561C48.9148 11.1672 48.6965 11.3793 48.5009 11.3274C48.3053 11.2756 48.2052 10.9833 48.2825 10.6675C48.3599 10.3564 48.5782 10.1443 48.7783 10.1961C48.9739 10.248 49.074 10.5402 48.9967 10.8561H48.9921Z" fill="#263238"/>
<path d="M50.0384 11.2944C50.0384 11.2944 48.9149 12.9159 47.9506 13.59C48.3599 14.2452 49.3788 14.1745 49.3788 14.1745L50.0338 11.2944H50.0384Z" fill="#ED893E"/>
<path d="M53.7317 10.8796C53.6635 10.8749 53.6044 10.8325 53.5771 10.7665C53.2587 9.98873 52.5991 9.86146 52.5946 9.86146C52.4945 9.8426 52.4308 9.74361 52.449 9.63991C52.4672 9.53621 52.5582 9.4655 52.6628 9.48907C52.6992 9.49378 53.527 9.65876 53.9182 10.6204C53.9591 10.7146 53.9182 10.8278 53.8227 10.8702C53.7954 10.8843 53.7681 10.889 53.7408 10.8843L53.7317 10.8796Z" fill="#263238"/>
<path d="M47.8323 9.26281C47.7959 9.26281 47.7595 9.24396 47.7276 9.22039C47.6503 9.1544 47.6412 9.03184 47.7049 8.95642C48.3553 8.15509 49.1877 8.24936 49.2241 8.25408C49.3242 8.26822 49.397 8.36249 49.3833 8.46619C49.3697 8.5699 49.2741 8.6406 49.1832 8.63118C49.1559 8.63118 48.5054 8.56047 47.9824 9.19682C47.9414 9.24396 47.8868 9.26753 47.8277 9.26281H47.8323Z" fill="#263238"/>
<path d="M55.9923 152.456C55.7012 152.456 55.4238 152.404 55.2509 152.254C55.1145 152.136 55.0508 151.966 55.0644 151.754C55.0735 151.598 55.1554 151.523 55.2191 151.485C55.6466 151.259 56.8884 152.051 57.0249 152.141C57.0567 152.159 57.0703 152.197 57.0658 152.235C57.0612 152.272 57.034 152.301 56.9976 152.31C56.7292 152.376 56.3471 152.452 55.9923 152.452V152.456ZM55.4192 151.631C55.3737 151.631 55.3328 151.641 55.301 151.655C55.2782 151.669 55.2464 151.693 55.2418 151.768C55.2327 151.919 55.2737 152.032 55.3646 152.112C55.5739 152.296 56.0788 152.32 56.7292 152.183C56.2971 151.924 55.7103 151.631 55.4147 151.631H55.4192Z" fill="#407BFF"/>
<path d="M56.9795 152.315C56.9795 152.315 56.9476 152.315 56.934 152.305C56.5337 152.079 55.765 151.207 55.8469 150.764C55.8605 150.684 55.9197 150.543 56.138 150.514C56.279 150.495 56.4109 150.538 56.5246 150.637C56.9704 151.014 57.0659 152.169 57.0659 152.216C57.0659 152.249 57.0522 152.282 57.0249 152.301C57.0113 152.31 56.9931 152.315 56.9749 152.315H56.9795ZM56.2017 150.698C56.2017 150.698 56.1744 150.698 56.1607 150.698C56.0425 150.712 56.0334 150.769 56.0288 150.792C55.9788 151.056 56.47 151.716 56.8657 152.027C56.8203 151.693 56.6975 151.019 56.4109 150.778C56.3472 150.722 56.2744 150.693 56.2017 150.693V150.698Z" fill="#407BFF"/>
<path d="M25.5306 150.755C25.5306 150.755 25.5215 150.755 25.5124 150.755C24.8802 150.708 23.7794 150.557 23.4701 150.066C23.3792 149.92 23.361 149.755 23.4247 149.576C23.4611 149.473 23.5338 149.402 23.6339 149.374C24.1479 149.246 25.4351 150.453 25.5807 150.59C25.608 150.618 25.6171 150.66 25.6034 150.698C25.5898 150.731 25.5625 150.75 25.5306 150.755ZM23.7021 149.553C23.7021 149.553 23.6839 149.553 23.6748 149.553C23.6339 149.562 23.6112 149.586 23.593 149.633C23.552 149.755 23.5611 149.859 23.6203 149.958C23.7931 150.231 24.3935 150.444 25.2486 150.538C24.7301 150.076 23.9978 149.515 23.6976 149.548L23.7021 149.553Z" fill="#407BFF"/>
<path d="M25.4579 150.726C25.4579 150.726 25.4488 150.717 25.4488 150.712C25.1031 150.165 24.5436 149.166 24.7347 148.615C24.7893 148.45 24.9075 148.337 25.0804 148.28C25.185 148.247 25.2805 148.261 25.3624 148.332C25.7717 148.681 25.6353 150.472 25.6171 150.675C25.6171 150.712 25.5853 150.75 25.5489 150.759C25.517 150.769 25.4852 150.759 25.4624 150.731L25.4579 150.726ZM25.2669 148.492C25.2669 148.492 25.2532 148.478 25.2487 148.473C25.2168 148.445 25.1804 148.44 25.1349 148.454C25.0167 148.492 24.9439 148.563 24.903 148.676C24.7984 148.987 25.003 149.609 25.4533 150.368C25.4943 149.661 25.4715 148.718 25.2669 148.492Z" fill="#407BFF"/>
<path d="M63.3201 29.513C64.2071 30.8092 64.9621 32.0631 65.7308 33.3688C66.4995 34.6604 67.2091 35.9943 67.9005 37.3472C69.256 40.067 70.5023 42.8717 71.3756 46.0063C71.4802 46.4022 71.5803 46.7982 71.6712 47.2083C71.7167 47.411 71.7622 47.6184 71.7986 47.8258L71.8577 48.1369L71.8896 48.2972L71.926 48.5517C72.0761 49.881 71.8714 50.8567 71.6485 51.7429C71.1754 53.5011 70.4886 54.9294 69.7517 56.3105C69.0103 57.6822 68.2007 58.969 67.3365 60.204C66.4722 61.4437 65.5762 62.6175 64.5755 63.7723L62.2102 62.0518C63.4429 59.4923 64.6983 56.8667 65.6626 54.293C65.9037 53.652 66.122 53.0109 66.3039 52.384C66.495 51.7617 66.6451 51.149 66.7224 50.5927C66.8043 50.0507 66.7952 49.5416 66.7361 49.4049C66.7361 49.4002 66.7315 49.3907 66.727 49.386L66.6997 49.2776L66.6405 49.0514C66.6041 48.9005 66.5632 48.7497 66.5132 48.5988C66.4268 48.2972 66.3221 47.9861 66.2175 47.6797C65.3578 45.1955 64.1161 42.6737 62.7879 40.2131C62.1238 38.9734 61.4142 37.7573 60.7092 36.5317C60.0042 35.3203 59.2355 34.09 58.5214 32.9493L63.3201 29.513Z" fill="#FFB573"/>
<path d="M62.747 27.2174C66.354 27.9716 69.5198 37.1162 69.5198 37.1162L61.992 43.4703C61.992 43.4703 59.5266 38.8226 57.5526 34.3398C55.4011 29.4564 58.3804 26.3076 62.7516 27.2174H62.747Z" fill="white"/>
<path opacity="0.4" d="M62.747 27.2174C66.354 27.9716 69.5198 37.1162 69.5198 37.1162L61.992 43.4703C61.992 43.4703 59.5266 38.8226 57.5526 34.3398C55.4011 29.4564 58.3804 26.3076 62.7516 27.2174H62.747Z" fill="#407BFF"/>
<path d="M12.3952 40.1631L10.5768 46.9584L11.0107 47.0831L12.8292 40.2878L12.3952 40.1631Z" fill="#407BFF"/>
<path d="M9.91085 49.4681L9.12439 52.407L9.55832 52.5317L10.3448 49.5928L9.91085 49.4681Z" fill="#407BFF"/>
<path d="M61.188 37.0039L23.3755 26.1516C20.5018 25.3268 17.5271 27.0724 16.7312 30.0504L6.25908 69.236C5.46321 72.214 7.14762 75.2968 10.0213 76.1215L47.8338 86.9739C50.7075 87.7987 53.6823 86.0531 54.4781 83.0751L64.9503 43.8895C65.7461 40.9115 64.0617 37.8287 61.188 37.0039Z" fill="#407BFF"/>
<path d="M38.6214 47.6184C38.4213 47.6184 38.2211 47.5901 38.021 47.5335C36.8247 47.1894 36.1197 45.9073 36.4518 44.6629L38.2666 37.8751C38.5987 36.6354 39.8404 35.9048 41.0367 36.2489C42.233 36.593 42.938 37.8751 42.606 39.1195L40.7911 45.9073C40.5136 46.9396 39.6085 47.6184 38.626 47.6184H38.6214Z" fill="white"/>
<path d="M30.7797 76.028C30.6615 76.028 30.5387 76.0091 30.4204 75.9761C29.7017 75.7687 29.2787 75.0004 29.4789 74.2556L31.2937 67.4679C31.4939 66.7231 32.2353 66.2894 32.954 66.4921C33.6726 66.6995 34.0956 67.4679 33.8955 68.2126L32.0806 75.0004C31.9169 75.6179 31.3711 76.028 30.7797 76.028Z" fill="white"/>
<path d="M45.4308 51.4978C45.1942 51.4978 44.9668 51.3705 44.844 51.1443C44.6621 50.8096 44.7758 50.3806 45.0987 50.1921L51.0164 46.7181C51.3393 46.5295 51.7533 46.6474 51.9352 46.982C52.1171 47.3167 52.0034 47.7457 51.6805 47.9342L45.7628 51.4082C45.6582 51.4695 45.5445 51.4978 45.4308 51.4978Z" fill="white"/>
<path d="M19.8678 67.4302C19.3175 67.4302 18.7853 67.1332 18.4942 66.6005C18.0666 65.8181 18.3304 64.8188 19.09 64.3757L25.0077 60.9017C25.7628 60.4586 26.7271 60.732 27.1546 61.5192C27.5822 62.3016 27.3184 63.3009 26.5588 63.744L20.6411 67.218C20.3955 67.3642 20.1317 67.4302 19.8678 67.4302Z" fill="white"/>
<path d="M53.0404 62.4996C52.9631 62.4996 52.8812 62.4902 52.7993 62.4666L46.2494 60.5858C45.7718 60.4491 45.4898 59.9353 45.6217 59.4404C45.7536 58.9455 46.2494 58.6532 46.727 58.7899L53.2769 60.6707C53.7545 60.8074 54.0365 61.3212 53.9046 61.8161C53.7955 62.2309 53.4316 62.4996 53.0359 62.4996H53.0404Z" fill="white"/>
<path d="M24.7257 55.3065C24.5665 55.3065 24.4073 55.2829 24.2435 55.2405L17.6936 53.3597C16.7338 53.0863 16.1744 52.0587 16.4382 51.0641C16.702 50.0695 17.6936 49.4897 18.6533 49.7631L25.2033 51.6439C26.163 51.9173 26.7225 52.9449 26.4587 53.9395C26.2358 54.7644 25.5126 55.3065 24.7257 55.3065Z" fill="white"/>
<path d="M44.5211 74.0388C44.1299 74.0388 43.7478 73.8267 43.5431 73.4496L40.1908 67.317C39.8861 66.7561 40.0771 66.0443 40.6139 65.7285C41.1551 65.4127 41.842 65.6107 42.1467 66.1669L45.499 72.2994C45.8038 72.8604 45.6127 73.5721 45.076 73.888C44.8986 73.9917 44.7121 74.0388 44.5211 74.0388Z" fill="white"/>
<path d="M30.0475 48.481C29.3425 48.481 28.6556 48.0992 28.2827 47.4157L24.9304 41.2831C24.38 40.2744 24.7211 38.9923 25.6945 38.4219C26.6679 37.8515 27.9051 38.2051 28.4555 39.2138L31.8078 45.3464C32.3582 46.3551 32.017 47.6372 31.0436 48.2076C30.7298 48.3914 30.3841 48.481 30.0475 48.481Z" fill="white"/>
<path d="M63.5748 61.1373L59.6721 60.9912L61.5643 65.6955C61.5643 65.6955 64.9166 65.0544 64.7847 63.1737L63.5793 61.1326L63.5748 61.1373Z" fill="#FFB573"/>
<path d="M57.0568 62.9333L57.9938 66.5298L61.5598 65.6955L59.6676 60.9912L57.0568 62.9333Z" fill="#FFB573"/>
</g>
<defs>
<clipPath id="clip0_1_1028">
<rect width="80" height="157" fill="white" transform="translate(0.5 0.5)"/>
</clipPath>
</defs>
</svg>
